{
  "name": "Lotfp-traducción-esp",
  "title": "Lotfp Traducción Español",
  "description": "Lotfp Spanish Translation",
  "version": "1.0.0",
  "minimumCoreVersion" : "0.7.0",
  "compatibleCoreVersion":"0.7.9",
  "author": "Zondark",
  "scripts": [],
  "styles": [],
  "dependencies": [],
  "packs": [],
  "languages": [
  {
    "lang": "es",
    "name": "Español",
    "path": "es.json"
  }
  ],
  "url": "https://gitlab.com/zondark/LotfpTraduccion",
  "manifest": "https://gitlab.com/zondark/LotfpTraduccion/raw/master/module.json",
  "download": "https://gitlab.com/zondark/LotfpTraduccion/-/archive/master/LotfpTraduccion-master.zip"
  }

